"Dataset","Row_Major+H0","Row_Major+H1","Row_Major+H2","Row_Major+H3","Row_Major+H4","Row_Major+H5","Row_Major+H6","Zorder+H0","Zorder+H1","Zorder+H2","Zorder+H3","Zorder+H4","Zorder+H5","Zorder+H6","Hilbert+H0","Hilbert+H1","Hilbert+H2","Hilbert+H3","Hilbert+H4","Hilbert+H5","Hilbert+H6","Random+H0","Random+H1","Random+H2","Random+H3","Random+H4","Random+H5","Random+H6","IS+H0","IS+H1","IS+H2","IS+H3","IS+H4","IS+H5","IS+H6","Row_Major+runs","Row_Major+z","Row_Major+v","Row_Major+g","Row_Major+r","Row_Major+delta","Zorder+runs","Zorder+z","Zorder+v","Zorder+g","Zorder+r","Zorder+delta","Hilbert+runs","Hilbert+z","Hilbert+v","Hilbert+g","Hilbert+r","Hilbert+delta","Random+runs","Random+z","Random+v","Random+g","Random+r","Random+delta","IS+runs","IS+z","IS+v","IS+g","IS+r","IS+delta","delta2d","bzip","gzip","netcdf","k2raster","locality","Moran","Geary","rm_k1","rm_k2","rm_k3","rm_k4","rm_k5","rm_k6","z_k1","z_k2","z_k3","z_k4","z_k5","z_k6","h_k1","h_k2","h_k3","h_k4","h_k5","h_k6","rd_k1","rd_k2","rd_k3","rd_k4","rd_k5","rd_k6","n"
"cat_join2X2_00.3.bin",19.5468030163,6.4137189142,0.0419000638,0.0063217996,0.006072259,0.0059270808,0.0058266125,19.5468030163,6.5136244103,0.0752783054,0.0048446191,0.0044491861,0.0037989421,0.0028955411,19.5468030163,6.5096205514,0.0610963978,0.0118879805,0.0052694274,0.0044684035,0.0023600308,19.5468030163,6.9308910676,0.0289774981,3.51E-05,2.10E-08,0,0,19.5468030163,6.420018801,0.0412093088,0.0068888108,0.0066195204,0.0064687626,0.0063619574,93341074,85793241,85775800,88706462,87266610,42858211,93378187,90250253,90248514,93098873,93390404,45085222,93343729,90295367,90279407,92707151,92789430,45094342,95336597,94495230,94445723,95098147,95336587,47139581,93347039,86059316,86043992,88841658,87486773,42993850,21833900,219848774,258793942,169206474,232224253,0.166883,0.9987862416,2.63E-05,1408747,85716424,87344990,87384776,87419958,87454441,1408747,90170446,93436031,93466587,93489107,93508741,1408747,90188685,92822531,93225168,93358762,93464838,1408747,94279163,95347585,95348481,95348481,95348480,95348484
"cat_join2X2_01.3.bin",19.6379046107,6.359797417,0.0428592735,0.006475525,0.0058419989,0.0055068941,0.0052813387,19.6379046107,6.4626939183,0.0802826923,0.0056660876,0.004900851,0.0040716068,0.0033083654,19.6379046107,6.4598737161,0.0650617875,0.0131528985,0.0061136235,0.0051124766,0.0027877123,19.6379046107,6.8576920644,0.025153967,2.78E-05,0,0,0,19.6379046107,6.3681880076,0.0433205033,0.0086414935,0.0080037819,0.0076610498,0.0074293262,94424201,86460884,86443020,89389328,87947566,43178111,94454627,91130916,91131416,94172489,94467522,45511819,94425313,91191991,91176673,93829629,93824671,45526121,96272923,95515983,95467423,96061896,96272785,47668170,94436880,86754848,86738769,89492363,88178882,43328598,21999800,225174522,263264475,173742657,235790102,0.152841,0.9988982173,2.32E-05,1699557,86356223,87989900,88035816,88073268,88107826,1699557,91023640,94490061,94529214,94556532,94578889,1699557,91052244,93833374,94275343,94423998,94539939,1699557,95336341,96282309,96283042,96283041,96283040,96283044
"cat_join2X2_02.3.bin",19.4716136176,6.5643453886,0.0457943159,0.006577886,0.0059787073,0.0056618346,0.0054538592,19.4716136176,6.6482703746,0.0605575699,0.0052228671,0.0045355455,0.0038136285,0.0029280283,19.4716136176,6.6335615943,0.061237694,0.0102284906,0.0048507888,0.0040856604,0.0024416299,19.4716136176,7.0235883479,0.0353814253,4.11E-05,6.97E-08,0,0,19.4716136176,6.5912800853,0.0460281077,0.0059450693,0.0053510376,0.005046723,0.0048452647,95069669,88855321,88837401,91478688,90517244,44375065,95098718,92648362,92655150,94901871,95133760,46280054,95067281,92170137,92151645,94411846,94660638,46018946,96927813,95960246,95889744,96585315,96927717,47820111,95066039,90162297,90145326,92590653,91868727,45027885,22637600,225663568,265548640,175846648,237238823,0.153642,0.9986692969,2.48E-05,1655655,88750132,90558764,90605020,90643367,90678911,1655655,92560110,95128372,95164100,95189072,95209635,1655655,92037894,94667816,94981545,95087493,95170563,1655655,95640223,96941358,96942399,96942401,96942400,96942404
"cat_join2X2_03.3.bin",19.4042578239,6.7281339693,0.043312749,0.0032553439,0.0030617666,0.0029561595,0.002880991,19.4042578239,6.7924976664,0.0634598264,0.0028451383,0.0026384646,0.0022313007,0.0018336032,19.4042578239,6.7873274779,0.0578095956,0.0072516639,0.0031889006,0.0027437629,0.0014501299,19.4042578239,7.1059780092,0.0342975158,2.70E-05,2.04E-08,0,0,19.4042578239,6.7314767384,0.0444691372,0.0053622333,0.0051603814,0.0050485516,0.0049649452,96369956,90691931,90674793,93392799,92407095,45304944,96392260,93659039,93658706,96203765,96412766,46779521,96369101,93546639,93522979,95979352,96032450,46708480,97868284,96989347,96925766,97509154,97868206,48312053,96380307,90751912,90736141,93491930,92428018,45336964,23115300,227733746,268552734,178691785,239966006,0.12254,0.9985466243,3.11E-05,1380986,90609889,92468317,92491205,92511092,92530196,1380986,93559044,96438411,96455978,96469996,96481698,1380986,93416961,96054601,96304644,96388932,96456341,1380986,96624108,97882574,97883361,97883361,97883360,97883364
"cat_join2X2_10.3.bin",19.1173844668,6.7930920691,0.252464737,0.0045930417,0.0031222772,0.0030331519,0.0029729063,19.1173844668,6.9248016242,0.2581525739,0.0038686872,0.0025102452,0.0022346459,0.0017371971,19.1173844668,6.8888390259,0.277962161,0.0117528547,0.0043605227,0.0035964504,0.0014157594,19.1173844668,7.3765599457,0.0127596335,2.63E-06,0,0,0,19.1173844668,6.803667046,0.2491011623,0.0058743864,0.0044521073,0.0043573433,0.0042937386,93949730,80120898,79817126,86165292,87686680,38860233,94006380,85219237,85039479,90976812,94085563,41566098,93957542,84457997,84208545,91283475,93488298,40926533,95345061,94910602,94886023,95248515,95345091,47417284,93962038,80458507,80156538,86178334,87913961,39048578,21964100,193393611,224366857,152782255,226348176,0.113792,0.9996690858,1.96E-05,1118154,77720468,87801400,87887461,87911106,87933907,1118154,83132197,94183710,94256227,94270214,94282346,1118154,81853067,93538038,94011042,94149607,94257252,1118154,94834570,95348376,95348482,95348481,95348480,95348484
"cat_join2X2_11.3.bin",19.1169682004,6.8569463916,0.1539867954,0.0040535932,0.0028332366,0.0025504318,0.0023683931,19.1169682004,6.9796143489,0.1741764395,0.0044605464,0.0033055543,0.0028637466,0.0024854162,19.1169682004,6.9608993953,0.176910565,0.0127106055,0.0052996158,0.0043793529,0.0021101647,19.1169682004,7.3817660123,0.0220323252,1.19E-05,0,0,0,19.1169682004,6.8746839677,0.1458442554,0.0066284378,0.0054801522,0.0051914498,0.0050078649,94751424,83022343,82842408,88187288,88232624,40957215,94800895,88189578,88124140,93572305,94861134,43632647,94760963,87744489,87577638,93135828,94237577,43266829,96275989,95610356,95568853,96082440,96275883,47711401,94771520,83564597,83402330,88746737,88458832,41283531,22095300,209851857,231815014,158265429,227908662,0.12364,0.9994603128,2.34E-05,1081422,81914431,88329408,88392452,88416920,88438532,1081422,87265295,94937007,94992320,95011854,95027853,1081422,86533659,94279273,94750072,94894786,95007289,1081422,95422804,96282696,96283042,96283041,96283040,96283044
"cat_join2X2_12.3.bin",18.9264586395,7.1963690429,0.0805498222,0.0043820502,0.0037634554,0.003501873,0.0033375248,18.9264586395,7.3156340137,0.1130714023,0.0035536821,0.0029421307,0.0026148821,0.0019217996,18.9264586395,7.3068478766,0.1045790966,0.0123545927,0.0049194393,0.0040226039,0.0016114828,18.9264586395,7.5875024963,0.0166591501,4.25E-06,0,0,0,18.9264586395,7.2061403856,0.0776016336,0.0051411538,0.0045375386,0.0042746963,0.0041093776,95918054,85654668,85593944,89926937,88730221,42686385,95948067,91057767,91076967,95519417,95956136,45414860,95915849,90864801,90823994,94777527,95263535,45269921,96937578,96414520,96388138,96787852,96937815,48133750,95919345,86041112,85995514,90310039,88996569,42897830,22200000,218051659,253629258,170210290,235037656,0.0832109,0.9979144514,4.26E-05,721887,85372771,88796708,88836959,88865515,88891483,721887,90829721,95997781,96026637,96043867,96058332,721887,90539844,95285383,95763496,95915356,96034301,721887,96267502,96942261,96942402,96942401,96942400,96942404
"cat_join2X2_13.3.bin",19.1850372408,7.0299509688,0.0465242008,0.001277018,0.001223365,0.0012200891,0.0012171111,19.1850372408,7.1420297869,0.0895316066,0.0012519346,0.0011911088,0.0009507162,0.0009234634,19.1850372408,7.1422964304,0.0732066065,0.0105720656,0.0036928526,0.003018836,0.0007399434,19.1850372408,7.3470545604,0.0124665506,2.01E-06,0,0,0,19.1850372408,7.039535329,0.0473704684,0.003416489,0.0033599895,0.0033519571,0.0033442309,97149992,87793394,87773789,91545963,89725263,43852445,97166349,93071447,93085973,96913721,97145436,46491545,97150418,93179829,93160458,96236995,96454866,46519434,97879101,97489586,97470910,97761672,97879208,48685723,97160514,88153486,88135862,91727140,90041145,44035434,22447300,225811379,266449982,178732299,239716375,0.0587143,0.9986670261,4.54E-05,875484,87704891,89795379,89811248,89824802,89838323,875484,92983091,97221002,97229483,97235344,97240067,875484,93038870,96499841,96967029,97114533,97229481,875484,97371448,97883293,97883362,97883361,97883360,97883364
"cat_join2X2_20.3.bin",18.271609215,7.4174221256,0.5859091031,0.0040288137,0.0003036691,0.0002763974,0.0002717207,18.271609215,7.5852469945,0.5559602375,0.0040622732,0.0007314578,0.0006924421,0.0006801876,18.271609215,7.5007526456,0.6259087393,0.0131623164,0.0032360414,0.0025470618,0.0005330134,18.271609215,8.2216926015,0.0134036042,1.26E-06,0,0,0,18.271609215,7.4346439082,0.5765339851,0.0060937243,0.002434543,0.0024033224,0.0023942659,94419682,72958715,72402220,83798626,88253396,33224975,94492246,78503594,78068348,88462688,94621192,36171486,94431553,76814066,76248805,87173397,94093221,34700865,95345911,94962002,94938670,95213944,95345873,47413794,94432634,73435765,72817149,83949495,88437332,33500565,22127100,184236602,194589991,139858387,207413413,0.0729226,0.999469955,2.11E-05,617447,66449951,88349054,88522196,88532219,88541211,617447,72342973,94723080,94886088,94890969,94894498,617447,69401732,94069728,94658428,94789087,94888291,617447,94827590,95348432,95348482,95348481,95348480,95348484
"cat_join2X2_21.3.bin",18.975630332,6.9004628408,0.2674309849,0.0045065458,0.0029568374,0.0029435839,0.0029394788,18.975630332,7.0433910324,0.2722871438,0.0041043567,0.0027051962,0.0024606104,0.0020025216,18.975630332,7.0061536963,0.2912826015,0.0127560953,0.0044010502,0.0037408298,0.0014751248,18.975630332,7.5163833581,0.0385831431,2.77E-05,0,0,0,18.975630332,6.9154740408,0.2617472162,0.0061628373,0.0046749133,0.0046588848,0.0046514782,95456949,80524467,80230342,88122632,88729599,39028060,95521651,86242859,86070752,93231572,95589297,41999514,95464938,85366873,85070391,92547029,94940871,41303747,96927481,96012038,95929667,96524808,96927360,47772688,95469619,81005683,80688978,88681522,89027350,39285788,22236600,210185763,216970503,151466744,224850692,0.118861,0.9985513734,1.20E-05,679462,78056122,88885922,88977803,88999135,89020013,679462,83999029,95725971,95806223,95818941,95830181,679462,82607495,95017930,95534494,95683265,95800126,679462,95545377,96941582,96942402,96942401,96942400,96942404
"cat_join2X2_22.3.bin",19.0294331374,7.2017967805,0.0793118569,0.0011858305,0.0010295817,0.0010280245,0.0010272241,19.0294331374,7.3203268198,0.1088768493,0.0009710192,0.0008797208,0.0008746531,0.0006648052,19.0294331374,7.3118467721,0.1015734613,0.0099923651,0.0033809171,0.0027436298,0.0004742223,19.0294331374,7.4951033528,0.0060877385,3.10E-07,0,0,0,19.0294331374,7.2118922499,0.0762578304,0.0020634704,0.0019183741,0.0019148036,0.0019115469,96453892,86299618,86248707,90889915,89460056,43019966,96481844,91674960,91692826,96069528,96491753,45733018,96456330,91426131,91394518,95491542,95816133,45564043,96940587,96727382,96719081,96893042,96940562,48340301,96455079,86699540,86653569,91048469,89727115,43231495,22389900,220474782,253110428,169369291,236782303,0.0389382,0.9985732316,4.58E-05,837371,86039933,89566865,89586506,89598987,89611436,837371,91466037,96561250,96570094,96574559,96578822,837371,91128087,95863174,96311536,96454786,96567161,837371,96680603,96942389,96942402,96942401,96942400,96942404
"cat_join2X2_23.3.bin",19.3975311608,6.81803145,0.0404434074,0.0002414087,0.0001886597,0.0001874898,0.0001870874,19.3975311608,6.9274949489,0.0831459241,0.0009926619,0.0009438931,0.0009390364,0.0009383521,19.3975311608,6.928567502,0.0669387834,0.0102777466,0.0036292813,0.0030303446,0.0007577337,19.3975311608,7.1340018382,0.0130247395,2.62E-06,0,0,0,19.3975311608,6.8269930057,0.0421035104,0.0029197202,0.0028647848,0.0028597424,0.0028555721,97112430,88195833,88179842,91715692,89900482,44059092,97133279,93325247,93329577,96895109,97104172,46622794,97119240,93453027,93441893,96364282,96435516,46665735,97878131,97467494,97444287,97759940,97878153,48673007,97125995,88507373,88493268,91865650,90176052,44216834,22493400,228664938,265585497,178704922,240559055,0.0611578,0.9993714067,4.10E-05,1018565,88118185,89969993,89980899,89989373,89997799,1018565,93245590,97192381,97199368,97204004,97208427,1018565,93331471,96491331,96944378,97088467,97203311,1018565,97346016,97883277,97883362,97883361,97883360,97883364
"cat_join2X2_30.3.bin",19.2009032209,6.8417972657,0.2338511711,0.0014676202,0.0003654866,0.0003470234,0.0003373381,19.2009032209,6.9725044695,0.2378832502,0.0017278906,0.0007854116,0.0007513581,0.0007299656,19.2009032209,6.9405239546,0.2559978355,0.0102105243,0.0031978544,0.0025583216,0.0005638372,19.2009032209,7.2981144767,0.0076881347,8.48E-07,0,0,0,19.2009032209,6.8561064052,0.2283248456,0.0035890621,0.0024928376,0.002468242,0.0024516498,94567311,80811859,80611363,88487402,88453151,39437942,94617524,86070278,85918700,92804038,94668465,42189233,94576331,85313475,85040675,91609011,94110200,41556900,95346118,95090246,95073254,95281295,95345996,47515025,94580365,81303125,81065549,88774002,88682957,39695083,22156400,205083211,217256670,153079317,225212510,0.0620782,0.999746731,1.49E-05,1043121,78875886,88580208,88639210,88648782,88657991,1043121,84378468,94815503,94863937,94868366,94872193,1043121,83113801,94195637,94642102,94768582,94866236,1043121,95030052,95348452,95348482,95348481,95348480,95348484
"cat_join2X2_31.3.bin",19.200910801,6.8655586898,0.117372972,0.0024109295,0.001991274,0.0019870653,0.0019856296,19.200910801,6.9844816396,0.1406606363,0.0024575208,0.0021230717,0.0021150657,0.0016663315,19.200910801,6.9690142667,0.1398488591,0.0107509,0.0038678626,0.0032708252,0.0012083465,19.200910801,7.302080402,0.0276188132,1.45E-05,0,0,0,19.200910801,6.8746082367,0.117199749,0.0046261428,0.004212772,0.0042043368,0.0041983897,95743398,84809818,84707153,90166055,89176675,42079689,95787753,90008915,89970875,94852960,95820451,44739985,95750070,89633395,89533641,94410954,95184085,44455237,96931339,96203900,96155494,96653398,96931363,47945182,95755642,85118227,85008265,90165478,89407038,42239942,22330100,217645177,239052676,163087302,234123519,0.0962251,0.9984842965,2.23E-05,943816,84159379,89307394,89343808,89360454,89376971,943816,89479971,95931624,95957644,95967572,95977205,943816,88910476,95270386,95714111,95848565,95954122,943816,95890365,96942002,96942402,96942401,96942400,96942404
"cat_join2X2_32.3.bin",19.3029405325,6.9746868874,0.0597304522,0.0002916321,0.0001886313,0.0001879864,0.0001878341,19.3029405325,7.0889388166,0.0959653922,0.0003618712,0.0002975361,0.0002929065,0.0002926947,19.3029405325,7.0871495029,0.0832437412,0.009558908,0.0030715332,0.0024630519,0.0002210796,19.3029405325,7.2256570764,0.0020269087,2.06E-08,0,0,0,19.3029405325,6.9819582481,0.0598460997,0.0014912598,0.0013880662,0.0013850609,0.0013823202,96617970,86934329,86900465,90913420,89397850,43392193,96636830,92272630,92272421,96293810,96625115,46067757,96622101,92260238,92225003,95777572,95957084,46029702,96941695,96859067,96857387,96932362,96941673,48425111,96626866,87221535,87191378,91126078,89650979,43538512,22372800,223053118,255865918,170244365,237404109,0.0251479,0.9998068615,3.35E-05,916378,86784388,89497233,89510456,89518898,89527315,916378,92135516,96706597,96711388,96713078,96714556,916378,92059405,96009742,96463449,96602777,96712621,916378,96850223,96942402,96942402,96942401,96942400,96942404
"cat_join2X2_33.3.bin",19.3227967832,6.7752233925,0.0620282374,0.0031624402,0.002986456,0.0029602012,0.0029428402,19.3227967832,6.8923011073,0.102937191,0.0026093228,0.0024342751,0.0021825071,0.00171685,19.3227967832,6.8875104405,0.0892661133,0.0119751646,0.0043174633,0.003572087,0.0013182788,19.3227967832,7.1979530251,0.0335656349,2.43E-05,0,0,0,19.3227967832,6.7851450268,0.0618800538,0.0048631746,0.0046876089,0.0046580288,0.0046372616,97258342,87485219,87445118,91301451,89829187,43624778,97295579,92841710,92839532,96808610,97299650,46312533,97263526,92862615,92827406,96329206,96586053,46279907,98534007,97671997,97605448,98181574,98534232,48643644,97269221,87871102,87837231,91643514,90156204,43824455,22479700,227089970,259942564,175500076,240887349,0.102842,0.9993592,3.40E-05,1058651,87249557,89922505,89951474,89973366,89994948,1058651,92625067,97382551,97401430,97413327,97423875,1058651,92559816,96647017,97126998,97279678,97396743,1058651,97287290,98548424,98549122,98549121,98549120,98549124
