"Dataset","Sigma","N","Original_rep","H0","H0_rep","runs","runs_rep","z","z_rep","v","v_rep","g","g_rep","r","r_rep","delta","delta_rep","k","delta_2d","k","rows","cols","delta_2d_rep","z_estimacion","g_estimacion","r_estimacion","delta_estimacion","delta_2d_estimacion"
"eua_join3X3_00.0.bin",423,116640000,1049760000,3.8353645438,447356923,17310182,623166552,4238329,267014727,4304602,271189926,7733114,162395394,22238703,800593308,1905033,451313022,13,1718281,4,10800,10800,436606365,21191645,7733114,22238703,9525165,389210922958453
"eua_join3X3_01.0.bin",424,116640000,1049760000,5.0565826519,589799803,26668060,960050160,6425492,404805996,6516451,410536413,11196787,240730920.5,34179690,1230468840,2898143,612216602,14,2597633,4,10800,10800,591587078,32127460,11196787,34179690,11592572,723453175827538
"eua_join3X3_02.0.bin",543,116640000,1166400000,6.1475605313,717051463,32018492,1184684204,7962489,509599296,8081137,517192768,13981212,300596058,41011703,1517433011,3379399,730754076,14,3059159,4,10800,10800,717146938,31849956,13981212,41011703,13517596,924584935798502
"eua_join3X3_10.0.bin",451,116640000,1049760000,4.0723626882,475000386,22208931,799521516,5305321,334235223,5368607,338222241,9116511,196004986.5,28086102,1011099672,2489191,537434830,12,2134309,4,10800,10800,514675294,26526605,9116511,28086102,9956764,538802598735842
"eua_join3X3_11.0.bin",452,116640000,1049760000,5.1499136168,600685927,28900538,1040419368,6863493,432400059,6958373,438377499,11912652,256122018,36767436,1323627696,3123767,631594389,13,2724716,4,10800,10800,612682856,34317465,11912652,36767436,12495068,777187131708699
"eua_join3X3_12.0.bin",543,116640000,1166400000,6.0185930196,702008692,33492154,1239209698,8213930,525691520,8336536,533538304,14331030,308117145,42247417,1563154429,3539459,735388544,13,3098772,4,10800,10800,724356504,32855720,14331030,42247417,14157836,942601600393677
"eua_join3X3_20.0.bin",442,116640000,1049760000,3.2924263459,384028611,17176358,618348888,4044043,254774709,4103546,258523398,7196067,151117407,21829412,785858832,1962126,457234254,12,1676980,4,10800,10800,429791700,20220215,7196067,21829412,9810630,375262841621329
"eua_join3X3_21.0.bin",450,116640000,1049760000,3.4856314349,406564053,18552585,667893060,4414342,278103546,4471869,281727747,7825414,164333694,23706493,853433748,2075246,474802416,13,1783365,4,10800,10800,447345225,22071710,7825414,23706493,10376230,411532460354984
"eua_join3X3_22.0.bin",540,116640000,1166400000,3.5725945988,416707437,18657931,690343447,4612391,295193024,4667817,298740288,8154255,171239355,23625225,874133325,2118512,514668704,12,1800906,4,10800,10800,479053986,23061955,8154255,23625225,10592560,417619054357635
