"Dataset","Row_Major+H0","Row_Major+H1","Row_Major+H2","Row_Major+H3","Row_Major+H4","Row_Major+H5","Row_Major+H6","Zorder+H0","Zorder+H1","Zorder+H2","Zorder+H3","Zorder+H4","Zorder+H5","Zorder+H6","Hilbert+H0","Hilbert+H1","Hilbert+H2","Hilbert+H3","Hilbert+H4","Hilbert+H5","Hilbert+H6","Random+H0","Random+H1","Random+H2","Random+H3","Random+H4","Random+H5","Random+H6","IS+H0","IS+H1","IS+H2","IS+H3","IS+H4","IS+H5","IS+H6","Row_Major+runs","Row_Major+z","Row_Major+v","Row_Major+g","Row_Major+r","Row_Major+delta","Zorder+runs","Zorder+z","Zorder+v","Zorder+g","Zorder+r","Zorder+delta","Hilbert+runs","Hilbert+z","Hilbert+v","Hilbert+g","Hilbert+r","Hilbert+delta","Random+runs","Random+z","Random+v","Random+g","Random+r","Random+delta","IS+runs","IS+z","IS+v","IS+g","IS+r","IS+delta","delta2d","bzip","gzip","netcdf","k2raster","locality","Moran","Geary","rm_k1","rm_k2","rm_k3","rm_k4","rm_k5","rm_k6","z_k1","z_k2","z_k3","z_k4","z_k5","z_k6","h_k1","h_k2","h_k3","h_k4","h_k5","h_k6","rd_k1","rd_k2","rd_k3","rd_k4","rd_k5","rd_k6","n"
"eua_join2X2_00.0.bin",2.5731951884,0.3759171626,0.3420213366,0.310072437,0.2697448671,0.2313216901,0.1975461386,2.5731951884,0.5143381595,0.4772028023,0.3774215369,0.3168472428,0.2568163165,0.2147224228,2.5731951884,0.4752470676,0.4409805179,0.3725655858,0.305011547,0.2528690077,0.2132037558,2.5731951884,2.5711521933,2.515966997,2.4041153946,2.2445628232,2.0510740188,1.8383994556,2.5731951884,0.4377729666,0.3962647485,0.3564429667,0.3057780663,0.258907708,0.2194057895,3680665,1022650,1040727,1887517,4496199,394599,4942453,1321289,1344313,2279703,5593889,523295,4640113,1283828,1304596,2283108,5701541,498945,20960060,6364438,6316892,9572938,20962402,2725357,4380685,1146938,1156254,2115128,4887835,445475,402934,2408287,5057185,3375590,5673607,7.19513,0.97970715,0.0202927274,397,13774,142743,534709,1089221,1696221,397,24546,268844,976117,1842913,2642760,397,17382,220028,849482,1643719,2385971,397,116641,928675,2627975,5172504,8403896,51840000
"eua_join2X2_01.0.bin",3.2410607534,0.7835144877,0.7160956849,0.6490746369,0.5455498116,0.4421573037,0.3554537199,3.2410607534,0.9319082925,0.8511093874,0.6969117818,0.5541027354,0.4178989805,0.318320637,3.2410607534,0.8697147388,0.8000172511,0.6837052874,0.5399894412,0.4165307223,0.3239004559,3.2410607534,3.2389821887,3.1418775146,2.9255859844,2.6174303962,2.2593910216,1.8905111545,3.2410607534,0.8700599095,0.7863906756,0.7004272791,0.5725164484,0.4523558241,0.3559465759,8032716,2126372,2153022,3779067,9843300,954044,9146772,2438790,2455865,3972743,10478328,1077446,8720361,2330206,2348806,3880084,10340009,1016072,26222174,8049549,8001498,11830622,26225093,3518540,8742347,2332271,2350281,3917350,10367213,1042350,928275,5247979,10351131,6936122,9921157,6.57037,0.9882523077,0.0117476503,397,18012,259684,1218562,2668824,4201663,397,29817,445159,1903394,3790096,5549782,397,21834,356518,1649739,3397905,5057321,397,125188,1622205,4716851,9100077,14277783,51840000
"eua_join2X2_02.0.bin",5.0944404067,1.2226478226,1.1101326008,1.0094091847,0.8664720355,0.7341361956,0.6275481745,5.0944404067,1.4261067725,1.2817702704,1.0742880003,0.8896880957,0.7226674534,0.5962386235,5.0944404067,1.3237383091,1.1990820475,1.040049987,0.8565694642,0.7067907275,0.5943801978,5.0944404067,5.0922994675,4.8429261368,3.9462558357,2.7916211908,1.768980586,1.0279022485,5.0944404067,1.3355673579,1.2069724942,1.0743982793,0.8919561825,0.7408909,0.6256829064,12554669,3214105,3256207,5613962,15959537,1406214,14383885,3599070,3617882,6068302,16708704,1522505,13539280,3409708,3433039,5875745,16396613,1434676,39406757,12862757,12809105,17292559,39409661,6075754,13384031,3494922,3520123,6007084,16679013,1499051,1265980,8282818,15274346,10594340,15035573,5.7799,0.9935458727,0.0064541009,403,22670,354014,1645836,3489393,5359550,403,35160,570153,2413710,4673133,6792072,403,24823,442794,2058596,4137086,6095286,403,139059,5638765,15931530,26906419,35981382,51840000
"eua_join2X2_03.0.bin",6.37840511,1.4923842587,1.3027846875,1.1238456728,0.9217087772,0.7876646016,0.6951311024,6.37840511,1.711471678,1.4841725301,1.1921120473,0.9609056011,0.8018362255,0.6910456914,6.37840511,1.599963498,1.3981505705,1.159622749,0.9251972083,0.7798637786,0.6822401629,6.37840511,6.3748469832,5.8491611984,3.8494234145,1.945140372,0.8154741672,0.2918383649,6.37840511,1.6110842969,1.4141376801,1.2121470745,0.9888294388,0.8448273085,0.7405732073,14262243,3804355,3868653,6762468,18295813,1511451,16488038,4217141,4263492,7277642,19316908,1653322,15552499,4023820,4058441,7043229,18988377,1565391,45396989,16215078,16146187,21493227,45398883,8103173,15660052,4124015,4166980,7259196,19428509,1670617,1410666,9680526,17467614,12316018,17933119,5.43996,0.9982983009,0.0017016305,510,37412,672775,2676025,4629099,6282079,510,56290,956032,3415324,5646329,7513662,510,38691,760120,3021437,5121309,6845319,510,237469,11558997,28326877,40515870,47236986,51840000
"eua_join2X2_10.0.bin",1.9987309959,0.3867601318,0.3597242298,0.3283182371,0.2852560774,0.243994781,0.2067910437,1.9987309959,0.4272537706,0.3802225373,0.3298722407,0.2798078497,0.2322701939,0.1909868951,1.9987309959,0.3977371242,0.3606896753,0.3170246614,0.2686972724,0.2265659924,0.19130642,1.9987309959,1.9969776071,1.9663645355,1.909117762,1.8289430485,1.7305303514,1.6188036163,1.9987309959,0.3901891342,0.3627872868,0.3308774577,0.2870260284,0.2450234978,0.2072564774,4244520,1163022,1176200,2044274,5429247,534024,4643012,1218544,1227204,2112832,5484761,541881,4364089,1158810,1166482,2028922,5329850,511082,16003170,4925391,4871010,7623157,16002920,2103209,4273978,1172514,1184509,2061130,5453482,537245,446104,2727415,5323409,3604049,4660681,7.29154,0.997535272,0.0024643731,422,15690,166003,629037,1268778,1982981,422,20464,220777,782201,1490742,2231735,422,16318,183474,682327,1322676,1995100,422,99118,534405,1417933,2781441,4602728,51840000
"eua_join2X2_11.0.bin",5.110568535,1.2178368187,1.1259753986,1.0474583349,0.9337802295,0.8181458829,0.7148549533,5.110568535,1.3526249452,1.1986583854,1.0607476938,0.9269592348,0.7915421229,0.6726786444,5.110568535,1.2524226566,1.1310347031,1.0138178475,0.882290382,0.76294823,0.6645559735,5.110568535,5.1095068029,4.9642233148,4.0754357255,2.8249040383,1.7207649415,0.9511509225,5.110568535,1.2262712366,1.1352216499,1.0564075784,0.9417661783,0.8263091378,0.7236279012,12961868,3183630,3224599,5590422,16770192,1459867,14282780,3333365,3356179,5754965,16854236,1474771,13315160,3150700,3174240,5505462,16371435,1383166,40708046,12900746,12846249,17292456,40709407,6243895,13131892,3212822,3251723,5635323,16948560,1480791,1276456,8402879,15260866,10589367,14225287,5.83351,0.9961727894,0.0038272424,310,15609,248131,1230386,2776503,4515303,310,23576,365328,1612420,3336426,5163128,310,16858,282353,1367357,2922570,4556888,310,65729,5058671,16208320,28108086,37404144,51840000
"eua_join2X2_12.0.bin",7.2018095432,1.8505778466,1.6889064094,1.547078596,1.3427197353,1.15375232,0.9988864905,7.2018095432,2.069754527,1.823057298,1.5831027601,1.3471863104,1.1277747408,0.9479492827,7.2018095432,1.9053601474,1.7075018511,1.5096883775,1.2814252016,1.0892730501,0.9404326667,7.2018095432,7.1996694912,6.7305655615,3.3543877598,0.9338088655,0.1797151006,0.0245091,7.2018095432,1.8697033526,1.7086531847,1.5638366107,1.3561778079,1.1662023203,1.0112274186,19098202,4749029,4818273,8173240,24430139,2110773,21231017,5041632,5087857,8480945,24788896,2168933,19728042,4743420,4787210,8112635,24111867,2027054,49419308,18229271,18130638,24383374,49421326,9868516,19347310,4810617,4875054,8256217,24699452,2143903,1846016,12627419,22752612,15936081,21467615,4.78695,0.9947679903,0.0052321471,424,25625,441374,2213377,4757340,7366657,424,38097,652588,2888766,5713400,8491529,424,25353,482642,2400482,4952543,7439191,424,140175,15341765,39474067,48931013,51392713,51840000
"eua_join2X2_13.0.bin",7.1938669662,1.8894384827,1.657903332,1.4298758183,1.1372367122,0.9307701096,0.7887810395,7.1938669662,2.1092623957,1.8132387904,1.469536053,1.1453638966,0.9148428718,0.7545169854,7.1938669662,1.9572053631,1.7052315257,1.4171782465,1.0985634935,0.8904196296,0.7522833985,7.1938669662,7.1902194822,6.386621394,3.3070162482,1.1647737375,0.3086480589,0.0630386286,7.1938669662,1.9250872496,1.6879687655,1.4501563925,1.1441172438,0.9339246038,0.7907093122,17898451,4805726,4882554,8160913,22377517,1931888,19974353,5175934,5236183,8563670,23069881,2045663,18710224,4895628,4946925,8231598,22528377,1907335,48184380,18422553,18349807,24008689,48186805,9428704,18191712,4895455,4962654,8274169,22609113,1965968,1690480,12284988,22252876,15664728,21693967,4.95529,0.996968755,0.0030313074,543,39870,791630,3592717,6560727,9059418,543,60815,1118611,4449586,7652876,10288740,543,41021,862004,3868810,6862072,9279865,543,244253,17512009,37108237,47143521,50787962,51840000
"eua_join2X2_20.0.bin",2.9386928887,0.6416095304,0.6106736311,0.5766451256,0.5218299969,0.4522321521,0.3780478554,2.9386928887,0.692180933,0.6261879932,0.5752778258,0.5145861169,0.4358986125,0.3535999237,2.9386928887,0.6426170644,0.5955321573,0.5492570776,0.4924882989,0.4255746537,0.3579847301,2.9386928887,2.9370934979,2.8708562684,2.717891289,2.490097576,2.2130282975,1.9138257858,2.9386928887,0.6418668749,0.6106399384,0.5762808562,0.5213147557,0.451406525,0.376732554,7504509,1839977,1860955,3260773,9299215,904374,8034051,1879370,1892361,3315222,9238016,900514,7552833,1785164,1797029,3172345,8996526,850838,24532600,7308824,7267576,10760815,24537244,3197929,7507538,1837187,1861956,3263621,9296360,902702,739693,4608425,8315427,5784041,7626258,6.78308,0.9988218543,0.0011781497,431,15034,157478,667147,1611855,2880430,431,18704,193096,776114,1796858,3112966,431,15313,159260,653946,1538617,2691837,431,93165,1193635,3588636,7151968,11559543,51840000
"eua_join2X2_21.0.bin",4.5871907927,0.9796934929,0.9229551162,0.8764178248,0.8169911467,0.7477625715,0.670625305,4.5871907927,1.0697954236,0.952493276,0.878567998,0.8131307963,0.7296435691,0.6361548693,4.5871907927,0.9805778716,0.8962597446,0.8284194374,0.7640488387,0.6964363074,0.6267067968,4.5871907927,4.5859906544,4.4676745951,3.880870994,2.985202634,2.0740164209,1.3285811262,4.5871907927,0.9798901369,0.9230023288,0.876291411,0.8170383696,0.7479906021,0.6710602675,11086745,2615592,2662064,4634627,14519293,1278229,12153003,2673269,2701478,4682297,14417872,1273422,11191984,2512963,2540987,4455208,13949481,1194464,37711380,11505883,11457522,15627963,37713507,5488711,11079824,2618053,2664521,4639729,14529598,1278827,1109329,6997671,12534115,8802876,11550760,6.17617,0.9992564902,0.0007434994,405,14020,168818,691918,1593857,2859496,405,18619,213842,822096,1818128,3169749,405,14161,169020,677777,1510353,2632428,405,68761,3554957,11660411,21755760,31090862,51840000
"eua_join2X2_22.0.bin",5.8398766528,1.4653932953,1.3642914871,1.2706110724,1.1367448071,0.9978862397,0.8646227788,5.8398766528,1.6029901603,1.4153019403,1.273370131,1.1267980621,0.96609031,0.8103632109,5.8398766528,1.463598762,1.3283603032,1.2029429405,1.0638688433,0.930683152,0.8096883723,5.8398766528,5.8379315173,5.5776544967,4.1378375711,2.3845815101,1.1345901004,0.4677171192,5.8398766528,1.4632640218,1.3637415231,1.2709502058,1.1391922183,1.0027175253,0.8712527057,15934032,3843501,3893093,6792944,20240763,1806259,17298710,3938231,3990299,6898226,20117006,1806445,15986205,3693004,3736395,6547653,19495507,1685703,44502382,14621363,14550031,19860585,44499232,7449177,15968181,3841865,3891667,6796328,20296102,1812059,1537301,10335822,18683497,13165319,16805033,5.40631,0.9977401606,0.002259838,422,21946,326336,1495375,3308277,5470688,422,31169,441587,1818211,3790011,6074412,422,21573,328467,1473676,3167597,5118222,422,118697,7292902,22490170,36233538,44695064,51840000
"eua_join2X2_23.0.bin",3.7441171186,0.8962210077,0.8179387268,0.7187964248,0.5927005132,0.4874072464,0.4021646406,3.7441171186,0.981679322,0.854050134,0.715806086,0.5807193413,0.464388803,0.3689681749,3.7441171186,0.8982687142,0.8024716002,0.681886346,0.5540790932,0.4540236967,0.3760371022,3.7441171186,3.7410635356,3.5805318769,3.2343154187,2.7688278753,2.2636077565,1.7789074762,3.7441171186,0.887165427,0.8097091584,0.7123391207,0.5899323441,0.4870717522,0.4029222433,9260335,2518056,2545614,4279790,11468824,1096088,10009684,2619555,2648526,4392229,11512902,1113968,9303309,2455230,2481442,4178232,11159654,1033258,29252017,9283503,9224322,13660800,29252862,4105306,9207523,2495105,2525043,4244965,11424588,1090240,924136,6214106,11768467,8161113,10314791,6.49635,0.997639723,0.0023603683,541,31264,471711,1773635,3306210,4819179,541,44339,620567,2098534,3720859,5287472,541,31898,489153,1782076,3228263,4616390,541,181127,2451337,6871921,12733587,19224722,51840000
"eua_join2X2_30.0.bin",1.7147804002,0.439673203,0.4216691562,0.4000068968,0.3608122387,0.307279683,0.2493900803,1.7147804002,0.4734600087,0.4319563557,0.3990735874,0.3554472044,0.2947499101,0.2310826687,1.7147804002,0.4389622411,0.4111966737,0.3815493508,0.3413436403,0.2899286363,0.2371831089,1.7147804002,1.7143190944,1.7065843002,1.686003404,1.650014492,1.5981779342,1.531894496,1.7147804002,0.4417394451,0.4235511062,0.4014988336,0.361620982,0.3074351525,0.249148032,5170003,1219649,1228177,2083932,6215733,613014,5477225,1243267,1249710,2113210,6157884,608058,5173180,1178337,1187401,2027334,6018802,577967,16125087,4277296,4260305,6493773,16124628,1841997,5185702,1217230,1233884,2096455,6226949,614046,508369,3124559,5677248,3990558,5171173,7.16899,0.9989740707,0.0010258872,416,9646,90684,424190,1108037,2047160,416,12033,112861,500972,1249086,2227797,416,10206,92156,415309,1058752,1918689,416,19174,222007,734609,1632036,2940631,51840000
"eua_join2X2_31.0.bin",1.592660264,0.3694576713,0.3492986595,0.3255067141,0.2915927967,0.2523763729,0.2103194694,1.592660264,0.4045254056,0.3634126419,0.3270650757,0.2892508448,0.2432347713,0.1951326978,1.592660264,0.3700810197,0.3410239901,0.3091101051,0.2735119598,0.2361123229,0.1982134635,1.592660264,1.592211989,1.5847651382,1.5666681476,1.5362546585,1.4933050896,1.4389870154,1.592660264,0.3695069423,0.3493410754,0.3255444721,0.2916334823,0.2524179524,0.210364414,4171281,1035894,1042100,1767564,5180976,494427,4511724,1067665,1072805,1802266,5170830,497522,4182059,999544,1006460,1713165,5012811,463856,14736663,3983310,3967597,6083151,14738413,1684441,4171398,1034427,1042293,1770227,5181901,494470,398759,2617350,5026079,3524913,4311166,7.32207,0.9994937782,0.0005061643,313,9833,113344,435035,954977,1646237,313,13176,145592,524310,1103441,1840940,313,10188,116622,435996,922984,1547080,313,21101,204700,651288,1419140,2527609,51840000
"eua_join2X2_32.0.bin",2.3059846361,0.5938874517,0.5622681614,0.5254552795,0.4649585888,0.3958599618,0.3274286303,2.3059846361,0.6491369154,0.5843552397,0.5281343696,0.4605681917,0.3812167268,0.3033776606,2.3059846361,0.5924401921,0.5483849544,0.499213916,0.4369378852,0.3714963545,0.3097599403,2.3059846361,2.3053973315,2.2894407747,2.2380076581,2.1446673789,2.0123398945,1.8497987626,2.3059846361,0.5985599476,0.5661975988,0.5281654343,0.4664510477,0.396632944,0.3279728464,6680943,1618249,1631831,2795095,8186746,781106,7172079,1667421,1678729,2846040,8143618,783207,6674148,1560073,1573098,2703071,7913814,730079,21315346,5769691,5746907,8279133,21310250,2535318,6694449,1627751,1641797,2812922,8213212,783449,625828,4254803,7916636,5672679,6921160,6.92173,0.9986941731,0.0013057841,328,11947,149731,688246,1592537,2699345,328,16413,200013,838536,1826369,2996976,328,12106,151300,678871,1522831,2523542,328,28580,481860,1653485,3656744,6437189,51840000
"eua_join2X2_33.0.bin",0.929145157,0.2229639268,0.2105718772,0.190405288,0.1572982053,0.1250923571,0.0974664528,0.929145157,0.2417280192,0.2167242054,0.1884381835,0.1525505552,0.1173185308,0.0871671108,0.929145157,0.2196785222,0.2037070128,0.1796022737,0.1471868611,0.1174166099,0.0925599168,0.929145157,0.9286411022,0.9254242649,0.9195627149,0.911121548,0.9002331043,0.8870446708,0.929145157,0.2200419861,0.2078923359,0.1884443454,0.1568356553,0.1254231065,0.0979109954,2525363,674808,681244,1124645,3011625,323394,2673345,696645,703467,1145308,2995120,325153,2504840,651565,657941,1089365,2916729,302799,7876392,2285817,2264163,3778245,7875657,949296,2504693,667797,673977,1113866,2994136,320843,279915,1611137,3392110,2370906,2635039,7.5964,0.9975263434,0.0024735992,356,10561,112460,459987,942738,1444693,356,14441,147697,540531,1047393,1563979,356,10488,111072,441537,885003,1339383,356,21528,87384,216154,420749,710301,51840000
